algorithm  : CONSTR_HEUR
instance   : in/teste100_1.txt
elapsedTime: 0 s
timeLimit  : 30 s
optimal    : No
sol. status: OK
n          : 100
m          : 9900
depot      : 1
cost       : 766481
tour       : 1 8 89 59 53 71 52 15 69 5 47 61 9 73 98 67 94 68 41 34 13 31 32 27 87 91 26 62 42 96 72 82 28 92 19 24 14 20 30 86 44 4 22 23 33 90 79 55 54 49 77 6 99 65 66 36 81 38 48 21 16 60 39 35 64 84 37 50 88 43 25 11 18 45 56 93 10 58 17 46 74 70 40 57 97 85 75 12 29 7 63 3 78 95 100 76 2 80 83 51
