algorithm  : CONSTR_HEUR
instance   : in/teste12_2.txt
elapsedTime: 0 s
timeLimit  : 30 s
optimal    : No
sol. status: OK
n          : 12
m          : 132
depot      : 1
cost       : 11714
tour       : 1 8 9 2 7 5 6 10 11 12 4 3
