13 156
1 1 1 0
2 42 177 5
3 365 92 7
4 93 488 2
5 527 455 6
6 234 832 11
7 932 569 11
8 557 51 10
9 768 19 4
10 253 299 10
11 876 532 3
12 921 516 1
13 811 189 13
1 2 70
1 3 82
1 4 46
1 5 66
1 6 7
1 7 52
1 8 21
1 9 60
1 10 97
1 11 117
1 12 97
1 13 82
2 1 110
2 3 3
2 4 87
2 5 102
2 6 68
2 7 70
2 8 112
2 9 117
2 10 2
2 11 127
2 12 46
2 13 108
3 1 99
3 2 9
3 4 11
3 5 63
3 6 38
3 7 11
3 8 57
3 9 108
3 10 93
3 11 103
3 12 44
3 13 100
4 1 25
4 2 65
4 3 29
4 5 121
4 6 52
4 7 126
4 8 72
4 9 31
4 10 128
4 11 28
4 12 2
4 13 66
5 1 98
5 2 113
5 3 53
5 4 99
5 6 109
5 7 99
5 8 77
5 9 78
5 10 107
5 11 88
5 12 10
5 13 15
6 1 99
6 2 66
6 3 122
6 4 61
6 5 38
6 7 36
6 8 30
6 9 62
6 10 100
6 11 59
6 12 52
6 13 22
7 1 54
7 2 124
7 3 52
7 4 52
7 5 22
7 6 53
7 8 118
7 9 119
7 10 36
7 11 41
7 12 88
7 13 15
8 1 9
8 2 35
8 3 92
8 4 115
8 5 122
8 6 101
8 7 129
8 9 91
8 10 37
8 11 121
8 12 22
8 13 74
9 1 27
9 2 52
9 3 6
9 4 127
9 5 110
9 6 58
9 7 18
9 8 34
9 10 51
9 11 69
9 12 86
9 13 72
10 1 122
10 2 74
10 3 61
10 4 28
10 5 114
10 6 19
10 7 42
10 8 122
10 9 53
10 11 3
10 12 107
10 13 45
11 1 103
11 2 106
11 3 5
11 4 10
11 5 97
11 6 26
11 7 84
11 8 123
11 9 77
11 10 89
11 12 120
11 13 57
12 1 17
12 2 7
12 3 91
12 4 68
12 5 76
12 6 46
12 7 10
12 8 67
12 9 120
12 10 70
12 11 95
12 13 103
13 1 89
13 2 6
13 3 95
13 4 11
13 5 8
13 6 71
13 7 56
13 8 111
13 9 47
13 10 61
13 11 120
13 12 13
1
