11 110
1 1 1 0
2 42 177 4
3 365 92 6
4 93 488 2
5 527 455 7
6 234 832 10
7 932 569 4
8 557 51 7
9 768 19 3
10 253 299 2
11 876 532 7
1 2 77
1 3 76
1 4 87
1 5 32
1 6 48
1 7 19
1 8 59
1 9 20
1 10 103
1 11 22
2 1 53
2 3 63
2 4 76
2 5 11
2 6 75
2 7 102
2 8 32
2 9 10
2 10 101
2 11 97
3 1 28
3 2 21
3 4 41
3 5 40
3 6 91
3 7 25
3 8 76
3 9 48
3 10 46
3 11 95
4 1 8
4 2 13
4 3 61
4 5 95
4 6 44
4 7 109
4 8 3
4 9 103
4 10 18
4 11 105
5 1 15
5 2 70
5 3 57
5 4 90
5 6 80
5 7 22
5 8 82
5 9 2
5 10 31
5 11 72
6 1 99
6 2 59
6 3 93
6 4 30
6 5 99
6 7 73
6 8 54
6 9 64
6 10 11
6 11 100
7 1 49
7 2 19
7 3 2
7 4 109
7 5 3
7 6 46
7 8 107
7 9 5
7 10 38
7 11 15
8 1 110
8 2 53
8 3 85
8 4 57
8 5 32
8 6 55
8 7 78
8 9 4
8 10 56
8 11 109
9 1 76
9 2 45
9 3 57
9 4 58
9 5 75
9 6 45
9 7 21
9 8 18
9 10 109
9 11 31
10 1 7
10 2 47
10 3 50
10 4 8
10 5 46
10 6 52
10 7 54
10 8 43
10 9 57
10 11 92
11 1 57
11 2 57
11 3 34
11 4 32
11 5 3
11 6 65
11 7 86
11 8 81
11 9 69
11 10 32
1
